-------------------------------------------------------------------------------
Test set: com.java.AppTest
-------------------------------------------------------------------------------
Tests run: 1, Failures: 0, Errors: 0, Skipped: 0, Time elapsed: 0.062 s - in com.java.AppTest
